R Notebook Quantilille 2023
…
cf.Tableau 5c de la Fiche Insee

    pop_dep <- pop_comm %>% 
        group_by(DEP) %>% 
        summarise(P17_POP = sum (P17_POP), 
                  P07_POP = sum (P07_POP),)
  
    pop_dep$txvar <- ((pop_dep$P17_POP / pop_dep$P07_POP)^0.1 - 1)*100
    
    pop_dep$txvar <- round (pop_dep$txvar, digits = 2)
    print (pop_dep)

## # A tibble: 100 × 4
##    DEP   P17_POP P07_POP txvar
##    <chr>   <dbl>   <dbl> <dbl>
##  1 01     643350  574553  1.14
##  2 02     534490  537884 -0.06
##  3 03     337988  342992 -0.15
##  4 04     163915  156017  0.5 
##  5 05     141284  132517  0.64
##  6 06    1083310 1084314 -0.01
##  7 07     325712  309349  0.52
##  8 08     273579  284517 -0.39
##  9 09     153153  148496  0.31
## 10 10     310020  300607  0.31
## # … with 90 more rows
…
